Time,Extension,Load
(sec),(mm),(N)
0.00000,0.00000,-7.77180
0.10000,0.00050,-7.77180
0.20000,0.00130,-7.77180
0.30000,0.00220,-7.77180
0.40000,0.00300,-7.77180
0.50000,0.00380,-7.77180
0.60000,0.00470,-7.75837
0.70000,0.00550,-7.75837
0.80000,0.00630,-7.75837
0.90000,0.00720,-7.75837
1.00000,0.00800,-7.73153
1.10000,0.00880,-7.67784
1.20000,0.00970,-7.57046
1.30000,0.01050,-7.44965
1.40000,0.01130,-7.30200
1.50000,0.01220,-7.18119
1.60000,0.01300,-7.03354
1.70000,0.01380,-6.89932
1.80000,0.01470,-6.77851
1.90000,0.01550,-6.60401
2.00000,0.01630,-6.41610
2.10000,0.01720,-6.24160
2.20000,0.01800,-6.08053
2.30000,0.01880,-5.89261
2.40000,0.01970,-5.70469
2.50000,0.02050,-5.51677
2.60000,0.02130,-5.35570
2.70000,0.02220,-5.14093
2.80000,0.02300,-4.96644
2.90000,0.02380,-4.80536
3.00000,0.02470,-4.63087
3.10000,0.02550,-4.44295
3.20000,0.02630,-4.25503
3.30000,0.02720,-4.08053
3.40000,0.02800,-3.91946
3.50000,0.02880,-3.71812
3.60000,0.02970,-3.51677
3.70000,0.03050,-3.35570
3.80000,0.03130,-3.20805
3.90000,0.03220,-3.03355
4.00000,0.03300,-2.84564
4.10000,0.03380,-2.64429
4.20000,0.03470,-2.46980
4.30000,0.03550,-2.26846
4.40000,0.03630,-2.06711
4.50000,0.03720,-1.89262
4.60000,0.03800,-1.71812
4.70000,0.03880,-1.54363
4.80000,0.03970,-1.36913
4.90000,0.04050,-1.20806
5.00000,0.04130,-1.03356
5.10000,0.04220,-0.84564
5.20000,0.04300,-0.64430
5.30000,0.04380,-0.45638
5.40000,0.04470,-0.29531
5.50000,0.04550,-0.09396
5.60000,0.04630,0.13422
5.70000,0.04720,0.32214
5.80000,0.04800,0.51006
5.90000,0.04880,0.71140
6.00000,0.04970,0.89932
6.10000,0.05050,1.08724
6.20000,0.05130,1.26174
6.30000,0.05220,1.43623
6.40000,0.05300,1.62415
6.50000,0.05380,1.78523
6.60000,0.05470,1.97314
6.70000,0.05550,2.17449
6.80000,0.05630,2.36241
6.90000,0.05720,2.52348
7.00000,0.05800,2.68455
7.10000,0.05880,2.87247
7.20000,0.05970,3.06039
7.30000,0.06050,3.24831
7.40000,0.06130,3.43623
7.50000,0.06220,3.63757
7.60000,0.06300,3.83891
7.70000,0.06380,3.98656
7.80000,0.06470,4.17448
7.90000,0.06550,4.34898
8.00000,0.06630,4.53690
8.10000,0.06720,4.69797
8.20000,0.06800,4.88589
8.30000,0.06880,5.07381
8.40000,0.06970,5.26173
8.50000,0.07050,5.42280
8.60000,0.07130,5.58387
8.70000,0.07220,5.78522
8.80000,0.07300,5.98656
8.90000,0.07380,6.17448
9.00000,0.07470,6.36239
9.10000,0.07550,6.56374
9.20000,0.07630,6.75166
9.30000,0.07720,6.89931
9.40000,0.07800,7.10065
9.50000,0.07880,7.26172
9.60000,0.07970,7.43622
9.70000,0.08050,7.59729
9.80000,0.08130,7.78521
9.90000,0.08220,7.95971
10.00000,0.08300,8.14763
10.10000,0.08380,8.30870
10.20000,0.08470,8.46977
10.30000,0.08550,8.67111
10.40000,0.08630,8.87246
10.50000,0.08720,9.04695
10.60000,0.08800,9.24829
10.70000,0.08880,9.46306
10.80000,0.08970,9.65098
10.90000,0.09050,9.79863
11.00000,0.09130,9.98655
11.10000,0.09220,10.17447
11.20000,0.09300,10.34896
11.30000,0.09380,10.49661
11.40000,0.09470,10.67111
11.50000,0.09550,10.84560
11.60000,0.09630,11.03352
11.70000,0.09720,11.19460
11.80000,0.09800,11.36909
11.90000,0.09880,11.58386
12.00000,0.09970,11.77178
12.10000,0.10050,11.93285
12.20000,0.10130,12.13419
12.30000,0.10220,12.32211
12.40000,0.10300,12.48318
12.50000,0.10380,12.65768
12.60000,0.10470,12.83218
12.70000,0.10550,13.02010
12.80000,0.10630,13.18117
12.90000,0.10720,13.34224
13.00000,0.10800,13.48989
13.10000,0.10880,13.69124
13.20000,0.10970,13.87915
13.30000,0.11050,14.04023
13.40000,0.11130,14.20130
13.50000,0.11220,14.40264
13.60000,0.11300,14.59056
13.70000,0.11380,14.76506
13.80000,0.11470,14.96640
13.90000,0.11550,15.16774
14.00000,0.11630,15.35566
14.10000,0.11720,15.54358
14.20000,0.11800,15.71808
14.30000,0.11880,15.91942
14.40000,0.11970,16.08049
14.50000,0.12050,16.24156
14.60000,0.12130,16.41606
14.70000,0.12220,16.60398
14.80000,0.12300,16.77848
14.90000,0.12380,16.93955
15.00000,0.12470,17.14089
15.10000,0.12550,17.32881
15.20000,0.12630,17.50331
15.30000,0.12720,17.69122
15.40000,0.12800,17.90599
15.50000,0.12880,18.09391
15.60000,0.12970,18.24156
15.70000,0.13050,18.42948
15.80000,0.13130,18.60397
15.90000,0.13220,18.77847
16.00000,0.13300,18.95297
16.10000,0.13380,19.11404
16.20000,0.13470,19.28854
16.30000,0.13550,19.47646
16.40000,0.13630,19.65095
16.50000,0.13720,19.79860
16.60000,0.13800,19.97310
16.70000,0.13880,20.16102
16.80000,0.13970,20.33551
16.90000,0.14050,20.51001
17.00000,0.14130,20.71135
17.10000,0.14220,20.91269
17.20000,0.14300,21.07377
17.30000,0.14380,21.24826
17.40000,0.14470,21.43618
17.50000,0.14550,21.59726
17.60000,0.14630,21.74491
17.70000,0.14720,21.87913
17.80000,0.14800,22.05363
17.90000,0.14880,22.24155
18.00000,0.14970,22.40262
18.10000,0.15050,22.56370
18.20000,0.15130,22.76504
18.30000,0.15220,22.95296
18.40000,0.15300,23.11403
18.50000,0.15380,23.28853
18.60000,0.15470,23.48987
18.70000,0.15550,23.67779
18.80000,0.15630,23.83886
18.90000,0.15720,23.99993
19.00000,0.15800,24.17443
19.10000,0.15880,24.36235
19.20000,0.15970,24.52342
19.30000,0.16050,24.67107
19.40000,0.16130,24.87241
19.50000,0.16220,25.03349
19.60000,0.16300,25.22141
19.70000,0.16380,25.35563
19.80000,0.16470,25.51671
19.90000,0.16550,25.70463
20.00000,0.16630,25.87912
20.10000,0.16720,26.04020
20.20000,0.16800,26.24154
20.30000,0.16880,26.44288
20.40000,0.16970,26.60395
20.50000,0.17050,26.76503
20.60000,0.17130,26.92610
20.70000,0.17220,27.10060
20.80000,0.17300,27.26167
20.90000,0.17380,27.40932
21.00000,0.17470,27.58382
21.10000,0.17550,27.77174
21.20000,0.17630,27.93281
21.30000,0.17720,28.10731
21.40000,0.17800,28.26838
21.50000,0.17880,28.44288
21.60000,0.17970,28.60395
21.70000,0.18050,28.76502
21.80000,0.18130,28.95294
21.90000,0.18220,29.12744
22.00000,0.18300,29.30193
22.10000,0.18380,29.46301
22.20000,0.18470,29.62408
22.30000,0.18550,29.81200
22.40000,0.18630,29.98650
22.50000,0.18720,30.13415
22.60000,0.18800,30.32207
22.70000,0.18880,30.50998
22.80000,0.18970,30.68448
22.90000,0.19050,30.83213
23.00000,0.19130,31.00663
23.10000,0.19220,31.19455
23.20000,0.19300,31.36904
23.30000,0.19380,31.53012
23.40000,0.19470,31.74488
23.50000,0.19550,31.93280
23.60000,0.19630,32.09387
23.70000,0.19720,32.26837
23.80000,0.19800,32.41602
23.90000,0.19880,32.59052
24.00000,0.19970,32.76501
24.10000,0.20050,32.91266
24.20000,0.20130,33.10058
24.30000,0.20220,33.28850
24.40000,0.20300,33.47642
24.50000,0.20380,33.61065
24.60000,0.20470,33.78514
24.70000,0.20550,33.95964
24.80000,0.20630,34.13414
24.90000,0.20720,34.29521
25.00000,0.20800,34.49655
25.10000,0.20880,34.67105
25.20000,0.20970,34.81870
25.30000,0.21050,34.96635
25.40000,0.21130,35.14084
25.50000,0.21220,35.32876
25.60000,0.21300,35.47641
25.70000,0.21380,35.62406
25.80000,0.21470,35.79856
25.90000,0.21550,35.98648
26.00000,0.21630,36.13413
26.10000,0.21720,36.28178
26.20000,0.21800,36.44285
26.30000,0.21880,36.64420
26.40000,0.21970,36.81869
26.50000,0.22050,36.97977
26.60000,0.22130,37.18111
26.70000,0.22220,37.34218
26.80000,0.22300,37.48983
26.90000,0.22380,37.65091
27.00000,0.22470,37.82540
27.10000,0.22550,37.99990
27.20000,0.22630,38.16097
27.30000,0.22720,38.30862
27.40000,0.22800,38.48312
27.50000,0.22880,38.67104
27.60000,0.22970,38.83211
27.70000,0.23050,38.97976
27.80000,0.23130,39.14083
27.90000,0.23220,39.30191
28.00000,0.23300,39.48983
28.10000,0.23380,39.66432
28.20000,0.23470,39.86566
28.30000,0.23550,40.04016
28.40000,0.23630,40.21466
28.50000,0.23720,40.37573
28.60000,0.23800,40.53680
28.70000,0.23880,40.69788
28.80000,0.23970,40.84553
28.90000,0.24050,40.99318
29.00000,0.24130,41.15425
29.10000,0.24220,41.34217
29.20000,0.24300,41.50324
29.30000,0.24380,41.65090
29.40000,0.24470,41.81197
29.50000,0.24550,41.99989
29.60000,0.24630,42.18781
29.70000,0.24720,42.34888
29.80000,0.24800,42.53680
29.90000,0.24880,42.71130
30.00000,0.24970,42.85895
30.10000,0.25050,43.02002
30.20000,0.25130,43.19452
30.30000,0.25220,43.35559
30.40000,0.25300,43.51666
30.50000,0.25380,43.65089
30.60000,0.25470,43.82539
30.70000,0.25550,44.01331
30.80000,0.25630,44.18780
30.90000,0.25720,44.33545
31.00000,0.25800,44.52337
31.10000,0.25880,44.69787
31.20000,0.25970,44.87236
31.30000,0.26050,45.03344
31.40000,0.26130,45.22136
31.50000,0.26220,45.39585
31.60000,0.26300,45.55693
31.70000,0.26380,45.71800
31.80000,0.26470,45.90592
31.90000,0.26550,46.05357
32.00000,0.26630,46.17437
32.10000,0.26720,46.33545
32.20000,0.26800,46.50994
32.30000,0.26880,46.68444
32.40000,0.26970,46.81867
32.50000,0.27050,46.97974
32.60000,0.27130,47.14081
32.70000,0.27220,47.30189
32.80000,0.27300,47.48981
32.90000,0.27380,47.67773
33.00000,0.27470,47.86564
33.10000,0.27550,48.02672
33.20000,0.27630,48.18779
33.30000,0.27720,48.34886
33.40000,0.27800,48.50994
33.50000,0.27880,48.67101
33.60000,0.27970,48.80524
33.70000,0.28050,48.93947
33.80000,0.28130,49.12739
33.90000,0.28220,49.28846
34.00000,0.28300,49.44953
34.10000,0.28380,49.61061
34.20000,0.28470,49.77168
34.30000,0.28550,49.93275
34.40000,0.28630,50.09383
34.50000,0.28720,50.28175
34.60000,0.28800,50.46966
34.70000,0.28880,50.63074
34.80000,0.28970,50.76497
34.90000,0.29050,50.92604
35.00000,0.29130,51.08711
35.10000,0.29220,51.24819
35.20000,0.29300,51.35557
35.30000,0.29380,51.51664
35.40000,0.29470,51.67772
35.50000,0.29550,51.86563
35.60000,0.29630,51.99986
35.70000,0.29720,52.16094
35.80000,0.29800,52.32201
35.90000,0.29880,52.50993
36.00000,0.29970,52.64416
36.10000,0.30050,52.83207
36.20000,0.30130,53.01999
36.30000,0.30220,53.20791
36.40000,0.30300,53.34214
36.50000,0.30380,53.50321
36.60000,0.30470,53.66429
36.70000,0.30550,53.82536
36.80000,0.30630,53.93274
36.90000,0.30720,54.12066
37.00000,0.30800,54.28174
37.10000,0.30880,54.46965
37.20000,0.30970,54.60388
37.30000,0.31050,54.73811
37.40000,0.31130,54.92603
37.50000,0.31220,55.08710
37.60000,0.31300,55.22133
37.70000,0.31380,55.38240
37.80000,0.31470,55.57032
37.90000,0.31550,55.73140
38.00000,0.31630,55.86562
38.10000,0.31720,56.02670
38.20000,0.31800,56.18777
38.30000,0.31880,56.34884
38.40000,0.31970,56.48307
38.50000,0.32050,56.64415
38.60000,0.32130,56.83206
38.70000,0.32220,56.99314
38.80000,0.32300,57.12737
38.90000,0.32380,57.26159
39.00000,0.32470,57.44951
39.10000,0.32550,57.63743
39.20000,0.32630,57.77166
39.30000,0.32720,57.93273
39.40000,0.32800,58.12065
39.50000,0.32880,58.28172
39.60000,0.32970,58.44280
39.70000,0.33050,58.60387
39.80000,0.33130,58.76495
39.90000,0.33220,58.92602
40.00000,0.33300,59.06025
40.10000,0.33380,59.24817
40.20000,0.33470,59.40924
40.30000,0.33550,59.57031
40.40000,0.33630,59.70454
40.50000,0.33720,59.89246
40.60000,0.33800,60.05353
40.70000,0.33880,60.18776
40.80000,0.33970,60.34883
40.90000,0.34050,60.53675
41.00000,0.34130,60.69783
41.10000,0.34220,60.85890
41.20000,0.34300,60.99313
41.30000,0.34380,61.15420
41.40000,0.34470,61.28843
41.50000,0.34550,61.44950
41.60000,0.34630,61.58373
41.70000,0.34720,61.74480
41.80000,0.34800,61.90588
41.90000,0.34880,62.04010
42.00000,0.34960,62.17433
42.10000,0.35050,62.33541
42.20000,0.35130,62.49648
42.30000,0.35210,62.65755
42.40000,0.35300,62.84547
42.50000,0.35380,63.00655
42.60000,0.35460,63.19446
42.70000,0.35550,63.30185
42.80000,0.35630,63.46292
42.90000,0.35710,63.59715
43.00000,0.35800,63.75822
43.10000,0.35880,63.89245
43.20000,0.35960,64.02668
43.30000,0.36050,64.18775
43.40000,0.36130,64.34882
43.50000,0.36210,64.50990
43.60000,0.36300,64.61728
43.70000,0.36380,64.80520
43.80000,0.36460,64.93943
43.90000,0.36550,65.10050
44.00000,0.36630,65.26157
44.10000,0.36710,65.44949
44.20000,0.36800,65.61057
44.30000,0.36880,65.77164
44.40000,0.36960,65.90587
44.50000,0.37050,66.06694
44.60000,0.37130,66.22801
44.70000,0.37210,66.36224
44.80000,0.37300,66.49647
44.90000,0.37380,66.63070
45.00000,0.37460,66.79177
45.10000,0.37550,66.92600
45.20000,0.37630,67.06023
45.30000,0.37710,67.24814
45.40000,0.37800,67.38237
45.50000,0.37880,67.54345
45.60000,0.37960,67.70452
45.70000,0.38050,67.89244
45.80000,0.38130,68.05351
45.90000,0.38210,68.16089
46.00000,0.38300,68.32197
46.10000,0.38380,68.45620
46.20000,0.38460,68.61727
46.30000,0.38550,68.75150
46.40000,0.38630,68.88572
46.50000,0.38710,69.01995
46.60000,0.38800,69.18103
46.70000,0.38880,69.31525
46.80000,0.38960,69.44948
46.90000,0.39050,69.61056
47.00000,0.39130,69.77163
47.10000,0.39210,69.90586
47.20000,0.39300,70.06693
47.30000,0.39380,70.25485
47.40000,0.39460,70.41592
47.50000,0.39550,70.55015
47.60000,0.39630,70.71122
47.70000,0.39710,70.84545
47.80000,0.39800,71.00652
47.90000,0.39880,71.14075
48.00000,0.39960,71.27498
48.10000,0.40050,71.43605
48.20000,0.40130,71.59713
48.30000,0.40210,71.70451
48.40000,0.40300,71.86558
48.50000,0.40380,72.02666
48.60000,0.40460,72.16088
48.70000,0.40550,72.32196
48.80000,0.40630,72.48303
48.90000,0.40710,72.64410
49.00000,0.40800,72.77833
49.10000,0.40880,72.91256
49.20000,0.40960,73.04679
49.30000,0.41050,73.20786
49.40000,0.41130,73.34209
49.50000,0.41210,73.44947
49.60000,0.41300,73.61054
49.70000,0.41380,73.77162
49.80000,0.41460,73.90585
49.90000,0.41550,74.01323
50.00000,0.41630,74.17430
50.10000,0.41710,74.30853
50.20000,0.41800,74.46960
50.30000,0.41880,74.60383
50.40000,0.41960,74.76490
50.50000,0.42050,74.92598
50.60000,0.42130,75.06021
50.70000,0.42210,75.19443
50.80000,0.42300,75.35551
50.90000,0.42380,75.48973
51.00000,0.42460,75.62396
51.10000,0.42550,75.75819
51.20000,0.42630,75.89242
51.30000,0.42710,76.05349
51.40000,0.42800,76.18772
51.50000,0.42880,76.32195
51.60000,0.42960,76.45618
51.70000,0.43050,76.61725
51.80000,0.43130,76.75148
51.90000,0.43210,76.88570
52.00000,0.43300,77.04678
52.10000,0.43380,77.18101
52.20000,0.43460,77.31523
52.30000,0.43550,77.44946
52.40000,0.43630,77.58369
52.50000,0.43710,77.71792
52.60000,0.43800,77.87899
52.70000,0.43880,77.95953
52.80000,0.43960,78.12060
52.90000,0.44050,78.25483
53.00000,0.44130,78.41590
53.10000,0.44210,78.52328
53.20000,0.44300,78.65751
53.30000,0.44380,78.79174
53.40000,0.44460,78.92597
53.50000,0.44550,79.06020
53.60000,0.44630,79.22127
53.70000,0.44710,79.38234
53.80000,0.44800,79.51657
53.90000,0.44880,79.62395
54.00000,0.44960,79.75818
54.10000,0.45050,79.89241
54.20000,0.45130,80.02664
54.30000,0.45210,80.13402
54.40000,0.45300,80.26825
54.50000,0.45380,80.40247
54.60000,0.45460,80.56355
54.70000,0.45550,80.69777
54.80000,0.45630,80.80516
54.90000,0.45710,80.93939
55.00000,0.45800,81.10046
55.10000,0.45880,81.23469
55.20000,0.45960,81.36891
55.30000,0.46050,81.52999
55.40000,0.46130,81.66422
55.50000,0.46210,81.79844
55.60000,0.46300,81.93267
55.70000,0.46380,82.06690
55.80000,0.46460,82.20113
55.90000,0.46550,82.33535
56.00000,0.46630,82.46958
56.10000,0.46710,82.63066
56.20000,0.46800,82.76488
56.30000,0.46880,82.87227
56.40000,0.46960,83.00649
56.50000,0.47050,83.14072
56.60000,0.47130,83.27495
56.70000,0.47210,83.43602
56.80000,0.47300,83.59710
56.90000,0.47380,83.73132
57.00000,0.47460,83.86555
57.10000,0.47550,83.99978
57.20000,0.47630,84.13401
57.30000,0.47710,84.26824
57.40000,0.47800,84.37562
57.50000,0.47880,84.50985
57.60000,0.47960,84.64407
57.70000,0.48050,84.77830
57.80000,0.48130,84.91253
57.90000,0.48210,85.04676
58.00000,0.48300,85.18098
58.10000,0.48380,85.31521
58.20000,0.48460,85.44944
58.30000,0.48550,85.58367
58.40000,0.48630,85.71790
58.50000,0.48710,85.85212
58.60000,0.48800,85.95951
58.70000,0.48880,86.09373
58.80000,0.48960,86.22796
58.90000,0.49050,86.36219
59.00000,0.49130,86.46957
59.10000,0.49210,86.60380
59.20000,0.49300,86.73803
59.30000,0.49380,86.87226
59.40000,0.49460,86.97964
59.50000,0.49550,87.08702
59.60000,0.49630,87.22125
59.70000,0.49710,87.38232
59.80000,0.49800,87.51655
59.90000,0.49880,87.62393
60.00000,0.49960,87.78501
60.10000,0.50050,87.91923
60.20000,0.50130,87.99977
60.30000,0.50210,88.13400
60.40000,0.50300,88.26823
60.50000,0.50380,88.37561
60.60000,0.50460,88.50984
60.70000,0.50550,88.61722
60.80000,0.50630,88.75145
60.90000,0.50710,88.88567
61.00000,0.50800,89.01990
61.10000,0.50880,89.10044
61.20000,0.50960,89.26151
61.30000,0.51050,89.39574
61.40000,0.51130,89.52997
61.50000,0.51210,89.63735
61.60000,0.51300,89.79842
61.70000,0.51380,89.93265
61.80000,0.51460,90.04003
61.90000,0.51550,90.17426
62.00000,0.51630,90.30849
62.10000,0.51710,90.41587
62.20000,0.51800,90.52325
62.30000,0.51880,90.63064
62.40000,0.51960,90.73802
62.50000,0.52050,90.87225
62.60000,0.52130,90.97963
62.70000,0.52210,91.08701
62.80000,0.52300,91.19439
62.90000,0.52380,91.32862
63.00000,0.52460,91.46285
63.10000,0.52550,91.59708
63.20000,0.52630,91.73130
63.30000,0.52710,91.86553
63.40000,0.52800,91.97291
63.50000,0.52880,92.08030
63.60000,0.52960,92.18768
63.70000,0.53050,92.32191
63.80000,0.53130,92.42929
63.90000,0.53210,92.50983
64.00000,0.53300,92.64405
64.10001,0.53380,92.77828
64.20000,0.53460,92.91251
64.30000,0.53550,92.99305
64.40000,0.53630,93.12727
64.50000,0.53710,93.26150
64.60001,0.53800,93.39573
64.70000,0.53880,93.52996
64.80000,0.53960,93.66418
64.90000,0.54050,93.77157
65.00000,0.54130,93.87895
65.10001,0.54210,94.01318
65.20000,0.54300,94.14740
65.30000,0.54380,94.25479
65.40000,0.54460,94.33532
65.50000,0.54550,94.46955
65.60001,0.54630,94.57693
65.70001,0.54710,94.68432
65.80000,0.54800,94.76485
65.90000,0.54880,94.89908
66.00000,0.54960,95.03331
66.10001,0.55050,95.16754
66.20001,0.55130,95.30176
66.30000,0.55210,95.43599
66.40000,0.55300,95.57022
66.50000,0.55380,95.70445
66.60001,0.55460,95.77156
66.70001,0.55550,95.90579
66.80000,0.55630,95.97290
66.90000,0.55710,96.10713
67.00000,0.55800,96.17425
67.10001,0.55880,96.30847
67.20001,0.55960,96.44270
67.30000,0.56050,96.50982
67.40000,0.56130,96.64404
67.50000,0.56210,96.71116
67.60001,0.56300,96.84538
67.70001,0.56380,96.97961
67.80000,0.56460,97.11384
67.90000,0.56550,97.24807
68.00000,0.56630,97.31518
68.10001,0.56710,97.44941
68.20001,0.56800,97.58364
68.30000,0.56880,97.65075
68.40000,0.56960,97.78498
68.50000,0.57050,97.85209
68.60001,0.57130,97.91921
68.70001,0.57210,98.05344
68.80000,0.57300,98.18766
68.90000,0.57380,98.25478
69.00000,0.57460,98.38900
69.10001,0.57550,98.45612
69.20001,0.57630,98.59035
69.30000,0.57710,98.72457
69.40000,0.57800,98.79169
69.50000,0.57880,98.92592
69.60001,0.57960,99.06014
69.70001,0.58050,99.19437
69.80000,0.58130,99.26149
69.90000,0.58210,99.32860
70.00000,0.58300,99.46283
70.10001,0.58380,99.52994
70.20001,0.58460,99.59706
70.30000,0.58550,99.73128
70.40000,0.58630,99.86551
70.50000,0.58710,99.99974
70.60001,0.58800,100.06685
70.70001,0.58880,100.13397
70.80000,0.58960,100.26819
70.90000,0.59050,100.40242
71.00000,0.59130,100.46954
71.10001,0.59210,100.60376
71.20001,0.59300,100.67088
71.30000,0.59380,100.80511
71.40000,0.59460,100.87222
71.50000,0.59550,101.00645
71.60001,0.59630,101.07356
71.70001,0.59710,101.20779
71.80000,0.59800,101.27490
71.90000,0.59880,101.34202
72.00000,0.59960,101.47625
72.10001,0.60050,101.54336
72.20001,0.60130,101.61047
72.30000,0.60210,101.74470
72.40000,0.60300,101.81181
72.50000,0.60380,101.94604
72.60001,0.60460,102.01316
72.70001,0.60550,102.14738
72.80000,0.60630,102.28161
72.90000,0.60710,102.34873
73.00000,0.60800,102.41584
73.10001,0.60880,102.55007
73.20001,0.60960,102.61718
73.30000,0.61050,102.68430
73.40000,0.61130,102.81852
73.50000,0.61210,102.88564
73.60001,0.61300,103.01987
73.70001,0.61380,103.08698
73.80000,0.61460,103.15409
73.90000,0.61550,103.28832
74.00000,0.61630,103.35544
74.10001,0.61710,103.42255
74.20001,0.61800,103.55678
74.30000,0.61880,103.69100
74.40000,0.61960,103.75812
74.50000,0.62050,103.82523
74.60001,0.62130,103.89235
74.70001,0.62210,104.02657
74.80000,0.62300,104.09369
74.90000,0.62380,104.16080
75.00000,0.62460,104.22792
75.10001,0.62550,104.36214
75.20001,0.62630,104.42926
75.30000,0.62710,104.49637
75.40000,0.62800,104.56349
75.50000,0.62880,104.63060
75.60001,0.62960,104.76483
75.70001,0.63050,104.83194
75.80000,0.63130,104.96617
75.90000,0.63210,105.03328
76.00000,0.63300,105.10040
76.10001,0.63380,105.16751
76.20001,0.63460,105.23462
76.30000,0.63550,105.36885
76.40000,0.63630,105.43597
76.50000,0.63710,105.43597
76.60001,0.63800,105.57019
76.70001,0.63880,105.63731
76.80000,0.63960,105.70442
76.90000,0.64050,105.77154
77.00000,0.64130,105.83865
77.10001,0.64210,105.90576
77.20001,0.64300,106.03999
77.30000,0.64380,106.10711
77.40000,0.64460,106.17422
77.50000,0.64550,106.30845
77.60001,0.64630,106.37556
77.70001,0.64710,106.44268
77.80000,0.64800,106.50979
77.90000,0.64880,106.57690
78.00000,0.64960,106.64402
78.10001,0.65050,106.71113
78.20001,0.65130,106.77825
78.30000,0.65210,106.84536
78.40000,0.65300,106.91247
78.50000,0.65380,106.97959
78.60001,0.65460,107.04670
78.70001,0.65550,107.18093
78.80000,0.65630,107.24804
78.90000,0.65710,107.31516
79.00000,0.65800,107.38227
79.10001,0.65880,107.44938
79.20001,0.65960,107.51650
79.30000,0.66050,107.58361
79.40000,0.66130,107.65073
79.50000,0.66210,107.71784
79.60001,0.66300,107.78495
79.70001,0.66380,107.85207
79.80000,0.66460,107.85207
79.90000,0.66550,107.98630
80.00000,0.66630,108.05341
80.10001,0.66710,108.05341
80.20001,0.66800,108.12052
80.30000,0.66880,108.18764
80.40000,0.66960,108.25475
80.50001,0.67050,108.32187
80.60001,0.67130,108.38898
80.70001,0.67210,108.45609
80.80000,0.67300,108.52321
80.90000,0.67380,108.59032
81.00001,0.67460,108.65743
81.10001,0.67550,108.72455
81.20001,0.67630,108.79166
81.30000,0.67710,108.79166
81.40000,0.67800,108.85878
81.50001,0.67880,108.92589
81.60001,0.67960,108.99300
81.70001,0.68050,109.06012
81.80000,0.68130,109.12723
81.90000,0.68210,109.19435
82.00001,0.68300,109.26146
82.10001,0.68380,109.32857
82.20001,0.68460,109.39569
82.30000,0.68550,109.46280
82.40000,0.68630,109.46280
82.50001,0.68710,109.52992
82.60001,0.68800,109.59703
82.70001,0.68880,109.59703
82.80000,0.68960,109.66414
82.90000,0.69050,109.66414
83.00001,0.69130,109.73126
83.10001,0.69210,109.79837
83.20001,0.69300,109.79837
83.30000,0.69380,109.86549
83.40000,0.69460,109.86549
83.50001,0.69550,109.93260
83.60001,0.69630,109.99971
83.70001,0.69710,109.99971
83.80000,0.69800,110.06683
83.90000,0.69880,110.13394
84.00001,0.69960,110.13394
84.10001,0.70050,110.20106
84.20001,0.70130,110.26817
84.30000,0.70210,110.26817
84.40000,0.70300,110.26817
84.50001,0.70380,110.33528
84.60001,0.70460,110.33528
84.70001,0.70550,110.40240
84.80000,0.70630,110.40240
84.90000,0.70710,110.46951
85.00001,0.70800,110.46951
85.10001,0.70880,110.53662
85.20001,0.70960,110.53662
85.30000,0.71050,110.60374
85.40000,0.71130,110.67085
85.50001,0.71210,110.67085
85.60001,0.71300,110.67085
85.70001,0.71380,110.73797
85.80000,0.71460,110.73797
85.90000,0.71550,110.80508
86.00001,0.71630,110.80508
86.10001,0.71710,110.80508
86.20001,0.71800,110.80508
86.30000,0.71880,110.87219
86.40000,0.71960,110.87219
86.50001,0.72050,110.87219
86.60001,0.72130,110.87219
86.70001,0.72210,110.93931
86.80000,0.72300,110.93931
86.90000,0.72380,110.93931
87.00001,0.72460,111.00642
87.10001,0.72550,111.00642
87.20001,0.72630,111.00642
87.30000,0.72710,111.07354
87.40000,0.72800,111.07354
87.50001,0.72880,111.07354
87.60001,0.72960,111.07354
87.70001,0.73050,111.07354
87.80000,0.73130,111.07354
87.90000,0.73210,111.07354
88.00001,0.73300,111.07354
88.10001,0.73380,111.07354
88.20001,0.73460,111.07354
88.30000,0.73550,111.14065
88.40000,0.73630,111.14065
88.50001,0.73710,111.14065
88.60001,0.73800,111.14065
88.70001,0.73880,111.14065
88.80000,0.73960,111.14065
88.90000,0.74050,111.20776
89.00001,0.74130,111.20776
89.10001,0.74210,111.20776
89.20001,0.74300,111.20776
89.30000,0.74380,111.20776
89.40000,0.74460,111.20776
89.50001,0.74550,111.20776
89.60001,0.74630,111.20776
89.70001,0.74710,111.20776
89.80000,0.74800,111.20776
89.90000,0.74880,111.20776
90.00001,0.74960,111.20776
90.10001,0.75050,111.20776
90.20001,0.75130,111.20776
90.30000,0.75210,111.20776
90.40000,0.75300,111.20776
90.50001,0.75380,111.20776
90.60001,0.75460,111.14065
90.70001,0.75550,111.14065
90.80000,0.75630,111.14065
90.90000,0.75710,111.14065
91.00001,0.75800,111.14065
91.10001,0.75880,111.14065
91.20001,0.75960,111.07354
91.30000,0.76050,111.07354
91.40000,0.76130,111.07354
91.50001,0.76210,111.07354
91.60001,0.76300,111.07354
91.70001,0.76380,111.07354
91.80000,0.76460,111.07354
91.90000,0.76550,111.07354
92.00001,0.76630,111.00642
92.10001,0.76710,111.00642
92.20001,0.76800,111.00642
92.30000,0.76880,110.93931
92.40000,0.76960,110.93931
92.50001,0.77050,110.93931
92.60001,0.77130,110.87219
92.70001,0.77210,110.87219
92.80000,0.77300,110.80508
92.90000,0.77380,110.80508
93.00001,0.77460,110.80508
93.10001,0.77550,110.80508
93.20001,0.77630,110.73797
93.30000,0.77710,110.73797
93.40000,0.77800,110.73797
93.50001,0.77880,110.73797
93.60001,0.77960,110.67085
93.70001,0.78050,110.67085
93.80000,0.78130,110.60374
93.90000,0.78210,110.60374
94.00001,0.78300,110.53662
94.10001,0.78380,110.53662
94.20001,0.78460,110.53662
94.30000,0.78550,110.46951
94.40000,0.78630,110.40240
94.50001,0.78710,110.40240
94.60001,0.78800,110.40240
94.70001,0.78880,110.33528
94.80000,0.78960,110.33528
94.90000,0.79050,110.33528
95.00001,0.79130,110.33528
95.10001,0.79210,110.26817
95.20001,0.79300,110.20106
95.30000,0.79380,110.20106
95.40000,0.79460,110.13394
95.50001,0.79550,110.13394
95.60001,0.79630,110.06683
95.70001,0.79710,109.99971
95.80000,0.79800,109.99971
95.90000,0.79880,109.99971
96.00001,0.79960,109.93260
96.10001,0.80050,109.86549
96.20001,0.80130,109.86549
96.30000,0.80210,109.79837
96.40000,0.80300,109.79837
96.50001,0.80380,109.79837
96.60001,0.80460,109.73126
96.70001,0.80550,109.66414
96.80000,0.80630,109.66414
96.90000,0.80710,109.59703
97.00001,0.80800,109.52992
97.10001,0.80880,109.52992
97.20001,0.80960,109.46280
97.30000,0.81050,109.39569
97.40000,0.81130,109.39569
97.50001,0.81210,109.32857
97.60001,0.81300,109.26146
97.70001,0.81380,109.26146
97.80000,0.81460,109.26146
97.90000,0.81550,109.19435
98.00001,0.81630,109.12723
98.10001,0.81710,109.12723
98.20001,0.81800,109.12723
98.30000,0.81880,109.06012
98.40000,0.81960,108.99300
98.50001,0.82050,108.99300
98.60001,0.82130,108.92589
98.70001,0.82210,108.85878
98.80000,0.82300,108.79166
98.90000,0.82380,108.79166
99.00001,0.82460,108.72455
99.10001,0.82550,108.65743
99.20001,0.82630,108.59032
99.30000,0.82710,108.52321
99.40000,0.82800,108.52321
99.50001,0.82880,108.45609
99.60001,0.82960,108.45609
99.70001,0.83050,108.38898
99.80000,0.83130,108.32187
99.90000,0.83210,108.32187
100.00001,0.83300,108.25475
100.10001,0.83380,108.18764
100.20001,0.83460,108.12052
100.30000,0.83550,108.05341
100.40000,0.83630,107.98630
100.50001,0.83710,107.91918
100.60001,0.83800,107.91918
100.70001,0.83880,107.85207
100.80000,0.83960,107.78495
100.90000,0.84050,107.71784
101.00001,0.84130,107.65073
101.10001,0.84210,107.58361
101.20001,0.84300,107.51650
101.30000,0.84380,107.51650
101.40000,0.84460,107.44938
101.50001,0.84550,107.31516
101.60001,0.84630,107.31516
101.70001,0.84710,107.18093
101.80000,0.84800,107.11381
101.90000,0.84880,107.04670
102.00001,0.84960,106.91247
102.10001,0.85050,106.84536
102.20001,0.85130,106.77825
102.30000,0.85210,106.71113
102.40000,0.85300,106.57690
102.50001,0.85380,106.50979
102.60001,0.85460,106.44268
102.70001,0.85550,106.30845
102.80000,0.85630,106.24133
102.90000,0.85710,106.10711
103.00001,0.85800,105.97288
103.10001,0.85880,105.77154
103.20001,0.85960,105.50308
103.30000,0.86050,105.23462
103.40000,0.86130,104.96617
103.50001,0.86210,104.69771
103.60001,0.86300,104.36214
103.70001,0.86380,104.09369
103.80000,0.86460,103.75812
103.90000,0.86550,103.35544
104.00001,0.86630,102.95275
104.10001,0.86710,102.14738
104.20001,0.86800,101.34202
104.30000,0.86880,100.13397
104.40000,0.86960,98.05344
104.50001,0.87040,6.51005
