Time,Extension,Load
(sec),(mm),(N)
0.00000,0.00000,-4.63087
0.10000,0.00130,-4.61744
0.20000,0.00300,-4.61744
0.30000,0.00470,-4.61744
0.40000,0.00630,-4.61744
0.50000,0.00800,-4.60402
0.60000,0.00970,-4.56375
0.70000,0.01130,-4.44295
0.80000,0.01300,-4.14765
0.90000,0.01470,-3.83892
1.00000,0.01630,-3.53020
1.10000,0.01800,-3.14094
1.20000,0.01970,-2.75168
1.30000,0.02130,-2.37584
1.40000,0.02300,-1.97315
1.50000,0.02470,-1.59732
1.60000,0.02630,-1.24832
1.70000,0.02800,-0.87249
1.80000,0.02970,-0.51007
1.90000,0.03130,-0.14766
2.00000,0.03300,0.24161
2.10000,0.03470,0.60402
2.20000,0.03630,1.00670
2.30000,0.03800,1.38254
2.40000,0.03970,1.74496
2.50000,0.04130,2.08053
2.60000,0.04300,2.44294
2.70000,0.04470,2.79193
2.80000,0.04630,3.14093
2.90000,0.04800,3.46307
3.00000,0.04970,3.69126
3.10000,0.05130,4.02683
3.20000,0.05300,4.37582
3.30000,0.05470,4.72482
3.40000,0.05630,5.11408
3.50000,0.05800,5.46307
3.60000,0.05970,5.82548
3.70000,0.06130,6.20132
3.80000,0.06300,6.57716
3.90000,0.06470,6.96642
4.00000,0.06630,7.32884
4.10000,0.06800,7.66440
4.20000,0.06970,8.02682
4.30000,0.07130,8.37581
4.40000,0.07300,8.73823
4.50000,0.07470,9.14091
4.60000,0.07630,9.51675
4.70000,0.07800,9.86574
4.80000,0.07970,10.22816
4.90000,0.08130,10.56373
5.00000,0.08300,10.91272
5.10000,0.08470,11.26171
5.20000,0.08630,11.61070
5.30000,0.08800,12.01339
5.40000,0.08970,12.40265
5.50000,0.09130,12.75164
5.60000,0.09300,13.12748
5.70000,0.09470,13.46305
5.80000,0.09630,13.79862
5.90000,0.09800,14.13419
6.00000,0.09970,14.51002
6.10000,0.10130,14.88586
6.20000,0.10300,15.26170
6.30000,0.10470,15.59727
6.40000,0.10630,15.95969
6.50000,0.10800,16.28183
6.60000,0.10970,16.60398
6.70000,0.11130,16.95297
6.80000,0.11300,17.31539
6.90000,0.11470,17.69122
7.00000,0.11630,18.08049
7.10000,0.11800,18.42948
7.20000,0.11970,18.80532
7.30000,0.12130,19.14089
7.40000,0.12300,19.48988
7.50000,0.12470,19.85229
7.60000,0.12630,20.22813
7.70000,0.12800,20.60397
7.80000,0.12970,20.97981
7.90000,0.13130,21.31538
8.00000,0.13300,21.66437
8.10000,0.13470,21.99994
8.20000,0.13630,22.33551
8.30000,0.13800,22.67108
8.40000,0.13970,23.02007
8.50000,0.14130,23.36906
8.60000,0.14300,23.75832
8.70000,0.14470,24.09389
8.80000,0.14630,24.45631
8.90000,0.14800,24.75161
9.00000,0.14970,25.10060
9.10000,0.15130,25.43617
9.20000,0.15300,25.78516
9.30000,0.15470,26.13416
9.40000,0.15630,26.50999
9.50000,0.15800,26.84556
9.60000,0.15970,27.18113
9.70000,0.16130,27.50328
9.80000,0.16300,27.86570
9.90000,0.16470,28.20127
10.00000,0.16630,28.52341
10.10000,0.16800,28.87240
10.20000,0.16970,29.24824
10.30000,0.17130,29.58381
10.40000,0.17300,29.91938
10.50000,0.17470,30.22811
10.60000,0.17630,30.56368
10.70000,0.17800,30.89924
10.80000,0.17970,31.23481
10.90000,0.18130,31.58381
11.00000,0.18300,31.93280
11.10000,0.18470,32.28179
11.20000,0.18630,32.60394
11.30000,0.18800,32.93951
11.40000,0.18970,33.30192
11.50000,0.19130,33.63749
11.60000,0.19300,33.98649
11.70000,0.19470,34.32205
11.80000,0.19630,34.72474
11.90000,0.19800,35.03346
12.00000,0.19970,35.38245
12.10000,0.20130,35.70460
12.20000,0.20300,36.06702
12.30000,0.20470,36.38916
12.40000,0.20630,36.73816
12.50000,0.20800,37.07373
12.60000,0.20970,37.40930
12.70000,0.21130,37.73144
12.80000,0.21300,38.05359
12.90000,0.21470,38.38916
13.00000,0.21630,38.72473
13.10000,0.21800,39.04687
13.20000,0.21970,39.39587
13.30000,0.22130,39.74486
13.40000,0.22300,40.09385
13.50000,0.22470,40.41600
13.60000,0.22630,40.75157
13.70000,0.22800,41.07372
13.80000,0.22970,41.40928
13.90000,0.23130,41.71801
14.00000,0.23300,42.05358
14.10000,0.23470,42.41599
14.20000,0.23630,42.77841
14.30000,0.23800,43.11398
14.40000,0.23970,43.43613
14.50000,0.24130,43.71800
14.60000,0.24300,44.05357
14.70000,0.24470,44.36230
14.80000,0.24630,44.72471
14.90000,0.24800,45.06028
15.00000,0.24970,45.40927
15.10000,0.25130,45.73142
15.20000,0.25300,46.05357
15.30000,0.25470,46.34887
15.40000,0.25630,46.68444
15.50000,0.25800,47.00659
15.60000,0.25970,47.36900
15.70000,0.26130,47.73142
15.80000,0.26300,48.08041
15.90000,0.26470,48.42940
16.00000,0.26630,48.75155
16.10000,0.26800,49.04685
16.20000,0.26970,49.36900
16.30000,0.27130,49.66430
16.40000,0.27300,50.01329
16.50000,0.27470,50.33544
16.60000,0.27630,50.68443
16.70000,0.27800,51.00658
16.80000,0.27970,51.32872
16.90000,0.28130,51.62402
17.00000,0.28300,51.97302
17.10000,0.28470,52.26832
17.20000,0.28630,52.61731
17.30000,0.28800,52.96630
17.40000,0.28970,53.28845
17.50000,0.29130,53.61060
17.60000,0.29300,53.93274
17.70000,0.29470,54.20120
17.80000,0.29630,54.55019
17.90000,0.29800,54.81865
18.00000,0.29970,55.16764
18.10000,0.30130,55.51663
18.20000,0.30300,55.86562
18.30000,0.30470,56.16093
18.40000,0.30630,56.48307
18.50000,0.30800,56.77837
18.60000,0.30970,57.12737
18.70000,0.31130,57.39582
18.80000,0.31300,57.74481
18.90000,0.31470,58.06696
19.00000,0.31630,58.38911
19.10000,0.31800,58.68441
19.20000,0.31970,59.00656
19.30000,0.32130,59.30186
19.40000,0.32300,59.65085
19.50000,0.32470,59.94615
19.60000,0.32630,60.29514
19.70000,0.32800,60.61729
19.80000,0.32970,60.93944
19.90000,0.33130,61.23474
20.00000,0.33300,61.55688
20.10000,0.33470,61.87903
20.20000,0.33630,62.20118
20.30000,0.33800,62.49648
20.40000,0.33970,62.81863
20.50000,0.34130,63.16762
20.60000,0.34300,63.48977
20.70000,0.34470,63.81191
20.80000,0.34630,64.10721
20.90000,0.34800,64.40251
21.00000,0.34960,64.69782
21.10000,0.35130,64.99312
21.20000,0.35300,65.31526
21.30000,0.35460,65.66426
21.40000,0.35630,65.95956
21.50000,0.35800,66.25486
21.60000,0.35960,66.55016
21.70000,0.36130,66.84546
21.80000,0.36300,67.14076
21.90000,0.36460,67.43606
22.00000,0.36630,67.75821
22.10000,0.36800,68.10720
22.20000,0.36960,68.40250
22.30000,0.37130,68.72465
22.40000,0.37300,69.01995
22.50000,0.37460,69.28841
22.60000,0.37630,69.58371
22.70000,0.37800,69.87901
22.80000,0.37960,70.20116
22.90000,0.38130,70.52330
23.00000,0.38300,70.81861
23.10000,0.38460,71.11391
23.20000,0.38630,71.40921
23.30000,0.38800,71.70451
23.40000,0.38960,71.97297
23.50000,0.39130,72.29511
23.60000,0.39300,72.59041
23.70000,0.39460,72.93941
23.80000,0.39630,73.23471
23.90000,0.39800,73.53001
24.00000,0.39960,73.82531
24.10000,0.40130,74.12061
24.20000,0.40300,74.41591
24.30000,0.40460,74.71121
24.40000,0.40630,75.00651
24.50000,0.40800,75.32866
24.60000,0.40960,75.62396
24.70000,0.41130,75.91926
24.80000,0.41300,76.16087
24.90000,0.41460,76.48302
25.00000,0.41630,76.75148
25.10000,0.41800,77.04678
25.20000,0.41960,77.34208
25.30000,0.42130,77.63738
25.40000,0.42300,77.93268
25.50000,0.42460,78.22798
25.60000,0.42630,78.49644
25.70000,0.42800,78.76489
25.80000,0.42960,79.06020
25.90000,0.43130,79.35550
26.00000,0.43300,79.65080
26.10000,0.43460,79.94610
26.20000,0.43630,80.24140
26.30000,0.43800,80.53670
26.40000,0.43960,80.77831
26.50000,0.44130,81.07361
26.60000,0.44300,81.34207
26.70000,0.44460,81.61052
26.80000,0.44630,81.90583
26.90000,0.44800,82.20113
27.00000,0.44960,82.46958
27.10000,0.45130,82.73804
27.20000,0.45300,82.97965
27.30000,0.45460,83.24810
27.40000,0.45630,83.54341
27.50000,0.45800,83.81186
27.60000,0.45960,84.08032
27.70000,0.46130,84.40246
27.80000,0.46300,84.67092
27.90000,0.46460,84.93937
28.00000,0.46630,85.20783
28.10000,0.46800,85.50313
28.20000,0.46960,85.77159
28.30000,0.47130,86.04004
28.40000,0.47300,86.33534
28.50000,0.47460,86.65749
28.60000,0.47630,86.92595
28.70000,0.47800,87.19440
28.80000,0.47960,87.43601
28.90000,0.48130,87.73131
29.00000,0.48300,87.97292
29.10000,0.48460,88.26823
29.20000,0.48630,88.53668
29.30000,0.48800,88.80514
29.40000,0.48960,89.07359
29.50000,0.49130,89.34205
29.60000,0.49300,89.58366
29.70000,0.49460,89.85211
29.80000,0.49630,90.09372
29.90000,0.49800,90.38903
30.00000,0.49960,90.65748
30.10000,0.50130,90.95278
30.20000,0.50300,91.19439
30.30000,0.50460,91.43600
30.40000,0.50630,91.67761
30.50000,0.50800,91.94607
30.60000,0.50960,92.18768
30.70000,0.51130,92.45613
30.80000,0.51300,92.75144
30.90000,0.51460,93.01989
31.00000,0.51630,93.26150
31.10000,0.51800,93.52996
31.20000,0.51960,93.77157
31.30000,0.52130,94.01318
31.40000,0.52300,94.25479
31.50000,0.52460,94.49640
31.60000,0.52630,94.76485
31.70000,0.52800,95.06015
31.80000,0.52960,95.30176
31.90000,0.53130,95.57022
32.00000,0.53300,95.83868
32.10000,0.53460,96.04002
32.20000,0.53630,96.30847
32.30000,0.53800,96.57693
32.40000,0.53960,96.84538
32.50000,0.54130,97.11384
32.60000,0.54300,97.38230
32.70000,0.54460,97.58364
32.80000,0.54630,97.85209
32.90000,0.54800,98.05344
33.00000,0.54960,98.32189
33.10000,0.55130,98.52323
33.20000,0.55300,98.79169
33.30000,0.55460,99.06014
33.40000,0.55630,99.32860
33.50000,0.55800,99.52994
33.60000,0.55960,99.73128
33.70000,0.56130,99.99974
33.80000,0.56300,100.20108
33.90000,0.56460,100.46954
34.00000,0.56630,100.73799
34.10000,0.56800,100.93933
34.20000,0.56960,101.20779
34.30000,0.57130,101.40913
34.40000,0.57300,101.61047
34.50000,0.57460,101.81181
34.60000,0.57630,102.01316
34.70000,0.57800,102.28161
34.80000,0.57960,102.55007
34.90000,0.58130,102.75141
35.00000,0.58300,102.95275
35.10000,0.58460,103.15409
35.20000,0.58630,103.42255
35.30000,0.58800,103.62389
35.40000,0.58960,103.82523
35.50000,0.59130,104.02657
35.60000,0.59300,104.29503
35.70000,0.59460,104.49637
35.80000,0.59630,104.69771
35.90000,0.59800,104.89906
36.00000,0.59960,105.10040
36.10000,0.60130,105.30174
36.20000,0.60300,105.57019
36.30000,0.60460,105.77154
36.40000,0.60630,105.97288
36.50000,0.60800,106.17422
36.60000,0.60960,106.37556
36.70000,0.61130,106.57690
36.80000,0.61300,106.77825
36.90000,0.61460,106.97959
37.00000,0.61630,107.18093
37.10000,0.61800,107.38227
37.20000,0.61960,107.58361
37.30000,0.62130,107.78495
37.40000,0.62300,107.98630
37.50000,0.62460,108.18764
37.60000,0.62630,108.38898
37.70000,0.62800,108.52321
37.80000,0.62960,108.72455
37.90000,0.63130,108.92589
38.00000,0.63300,109.19435
38.10000,0.63460,109.32857
38.20000,0.63630,109.52992
38.30000,0.63800,109.73126
38.40000,0.63960,109.86549
38.50000,0.64130,110.06683
38.60000,0.64300,110.20106
38.70000,0.64460,110.40240
38.80000,0.64630,110.67085
38.90000,0.64800,110.80508
39.00000,0.64960,111.00642
39.10000,0.65130,111.14065
39.20000,0.65300,111.27488
39.30000,0.65460,111.47622
39.40000,0.65630,111.61045
39.50000,0.65800,111.81179
39.60000,0.65960,112.01313
39.70000,0.66130,112.14736
39.80000,0.66300,112.28159
39.90000,0.66460,112.41581
40.00000,0.66630,112.55004
40.10000,0.66800,112.68427
40.20000,0.66960,112.88561
40.30000,0.67130,113.01984
40.40000,0.67300,113.15407
40.50000,0.67460,113.28830
40.60000,0.67630,113.42252
40.70000,0.67800,113.55675
40.80000,0.67960,113.69098
40.90000,0.68130,113.82521
41.00000,0.68300,113.95943
41.10000,0.68460,114.09366
41.20000,0.68630,114.22789
41.30000,0.68800,114.36212
41.40000,0.68960,114.42923
41.50000,0.69130,114.56346
41.60000,0.69300,114.63057
41.70000,0.69460,114.69769
41.80000,0.69630,114.83192
41.90000,0.69800,114.89903
42.00000,0.69960,115.03326
42.10000,0.70130,115.10037
42.20000,0.70300,115.16749
42.30000,0.70460,115.23460
42.40000,0.70630,115.30171
42.50000,0.70800,115.36883
42.60000,0.70960,115.43594
42.70000,0.71130,115.50306
42.80000,0.71300,115.63728
42.90000,0.71460,115.63728
43.00000,0.71630,115.70440
43.10000,0.71800,115.70440
43.20000,0.71960,115.77151
43.30000,0.72130,115.77151
43.40000,0.72300,115.83862
43.50000,0.72460,115.83862
43.60000,0.72630,115.90574
43.70000,0.72800,115.90574
43.80000,0.72960,115.90574
43.90000,0.73130,115.83862
44.00000,0.73300,115.83862
44.10000,0.73460,115.83862
44.20000,0.73630,115.83862
44.30000,0.73800,115.83862
44.40000,0.73960,115.77151
44.50000,0.74130,115.77151
44.60000,0.74300,115.77151
44.70000,0.74460,115.77151
44.80000,0.74630,115.70440
44.90000,0.74800,115.63728
45.00000,0.74960,115.57017
45.10000,0.75130,115.57017
45.20000,0.75300,115.50306
45.30000,0.75460,115.43594
45.40000,0.75630,115.36883
45.50000,0.75800,115.30171
45.60000,0.75960,115.23460
45.70000,0.76130,115.16749
45.80000,0.76300,115.10037
45.90000,0.76460,115.03326
46.00000,0.76630,114.89903
46.10000,0.76800,114.83192
46.20000,0.76960,114.76480
46.30000,0.77130,114.63057
46.40000,0.77300,114.56346
46.50000,0.77460,114.42923
46.60000,0.77630,114.36212
46.70000,0.77800,114.29500
46.80000,0.77960,114.22789
46.90000,0.78130,114.09366
47.00000,0.78300,114.02655
47.10000,0.78460,113.89232
47.20000,0.78630,113.82521
47.30000,0.78800,113.69098
47.40000,0.78960,113.62387
47.50000,0.79130,113.55675
47.60000,0.79300,113.42252
47.70000,0.79460,113.28830
47.80000,0.79630,113.08695
47.90000,0.79800,112.95273
48.00000,0.79960,112.81850
48.10000,0.80130,112.68427
48.20000,0.80300,112.61716
48.30000,0.80460,112.48293
48.40000,0.80630,112.41581
48.50000,0.80800,112.28159
48.60000,0.80960,112.14736
48.70000,0.81130,112.01313
48.80000,0.81300,111.87890
48.90000,0.81460,111.81179
49.00000,0.81630,111.67756
49.10000,0.81800,111.61045
49.20000,0.81960,111.47622
49.30000,0.82130,111.34199
49.40000,0.82300,111.20776
49.50000,0.82460,111.00642
49.60000,0.82630,110.73797
49.70000,0.82800,110.46951
49.80000,0.82960,110.20106
49.90000,0.83130,109.93260
50.00000,0.83300,109.66414
50.10000,0.83460,109.39569
50.20000,0.83630,109.06012
50.30000,0.83800,108.72455
50.40000,0.83960,108.45609
50.50000,0.84130,108.12052
50.60000,0.84300,107.78495
50.70000,0.84460,107.51650
50.80000,0.84630,107.11381
50.90000,0.84800,106.77825
51.00000,0.84960,106.30845
51.10000,0.85130,105.90576
51.20000,0.85300,105.43597
51.30000,0.85460,104.96617
51.40000,0.85630,104.49637
51.50000,0.85800,103.89235
51.60000,0.85960,103.22121
51.70000,0.86130,102.34873
51.80000,0.86300,100.93933
51.90000,0.86460,98.18766
52.00000,0.86630,93.62392
52.10000,0.86800,83.82528
52.20000,0.86960,75.10047
52.30000,0.87130,48.38913
52.35000,0.87210,-2.61745
